{"properties": [  
  {
    "name": "custom.openshift.hostname",
    "type": "java.lang.String",
    "description": "A hostname where service is being deployed (in this case its the openShift projects name)"
  }
]}